…
1.  Calculate the total `co2_emission` per country by grouping by
    country and taking the sum of `co2_emission`. Call the sum
    `total_emission` and store the resulting data frame as
    `emissions_by_country`.

``` r
# Calculate total co2_emission per country: emissions_by_country
emissions_by_country <- food_consumption %>%
  group_by(country) %>%
  summarise(total_emission = sum(co2_emission))

emissions_by_country
```

    ## # A tibble: 130 × 2
    ##    country    total_emission
    ##    <chr>               <dbl>
    ##  1 Albania             1778.
    ##  2 Algeria              708.
    ##  3 Angola               413.
    ##  4 Argentina           2172.
    ##  5 Armenia             1110.
    ##  6 Australia           1939.
    ##  7 Austria             1211.
    ##  8 Bahamas             1193.
    ##  9 Bangladesh           374.
    ## 10 Barbados             889.
    ## # … with 120 more rows
…
``` r
wait_times <- tibble(simulation_nb=c(1:1000))

# 1. Set random seed to 334
set.seed(334)

# 2. Generate 1000 wait times between 0 and 30 mins, save in time column
wait_times %>%
  mutate(time = runif(1000, min = 0, max = 30))
```

    ## # A tibble: 1,000 × 2
    ##    simulation_nb   time
    ##            <int>  <dbl>
    ##  1             1 29.5  
    ##  2             2 16.3  
    ##  3             3  0.369
    ##  4             4 24.2  
    ##  5             5 23.4  
    ##  6             6 15.9  
    ##  7             7 17.5  
    ##  8             8  2.81 
    ##  9             9  1.23 
    ## 10            10 18.8  
    ## # … with 990 more rows
…
