…
# Predict new data
predictions <- predict(chocolate_model,
                       new_data = chocolate_test) %>%
  # Add the test set
  bind_cols(chocolate_test)

predictions
```

    ## # A tibble: 359 × 7
    ##    .pred final_grade review_date cocoa_percent company_location bean_type 
    ##    <dbl>       <dbl>       <dbl>         <dbl> <fct>            <fct>     
    ##  1  3.41        3.75        2014          0.7  France           Criollo   
    ##  2  3.20        3.75        2013          0.7  France           <NA>      
    ##  3  3.20        2.75        2013          0.7  France           <NA>      
    ##  4  3.41        4           2013          0.63 France           <NA>      
    ##  5  3.41        3.75        2012          0.63 France           <NA>      
    ##  6  2.99        3.75        2015          0.7  U.S.A.           <NA>      
    ##  7  3.20        3.25        2011          0.8  Fiji             Trinitario
    ##  8  3.41        2.75        2010          0.75 Switzerland      Forastero 
    ##  9  2.99        3.25        2013          0.6  U.S.A.           <NA>      
    ## 10  3.22        4           2011          0.7  U.S.A.           <NA>      
    ## # … with 349 more rows, and 1 more variable: broad_bean_origin <fct>
…
# Create the tuning grid
tunegrid_boost <- grid_regular(parameters(boost_spec), 
                               levels = 3)

tunegrid_boost
```

    ## # A tibble: 27 × 3
    ##    tree_depth   learn_rate sample_size
    ##         <int>        <dbl>       <dbl>
    ##  1          1 0.0000000001        0.1 
    ##  2          8 0.0000000001        0.1 
    ##  3         15 0.0000000001        0.1 
    ##  4          1 0.00000316          0.1 
    ##  5          8 0.00000316          0.1 
    ##  6         15 0.00000316          0.1 
    ##  7          1 0.1                 0.1 
    ##  8          8 0.1                 0.1 
    ##  9         15 0.1                 0.1 
    ## 10          1 0.0000000001        0.55
    ## # … with 17 more rows
…
