…
``` r
bike_share_rides_mod %>%
  # 1. Group by ride_id and date
  group_by(ride_id, date) %>%
  # 2. Add duration_min_avg column
  mutate(duration_min_avg = mean(duration_mins) ) %>%
  # 3. Remove duplicates based on ride_id and date, keep all cols
  distinct(ride_id, date, .keep_all = TRUE) %>%
  # 4. Remove duration_min column
  select(-duration_mins)
```

    ## # A tibble: 35,229 × 13
    ## # Groups:   ride_id, date [35,229]
    ##    ride_id date                duration station_A_id station_A_name station_B_id
    ##      <int> <dttm>              <chr>           <dbl> <chr>                 <dbl>
    ##  1   52797 2017-04-15 00:00:00 1316.15…           67 San Francisco…           89
    ##  2   54540 2017-04-19 00:00:00 8.13 mi…           21 Montgomery St…           64
    ##  3   87695 2017-04-14 00:00:00 24.85 m…           16 Steuart St at…          355
    ##  4   45619 2017-04-03 00:00:00 6.35 mi…           58 Market St at …          368
    ##  5   70832 2017-04-10 00:00:00 9.8 min…           16 Steuart St at…           81
    ##  6   96135 2017-04-18 00:00:00 17.47 m…            6 The Embarcade…           66
    ##  7   29928 2017-04-22 00:00:00 16.52 m…            5 Powell St BAR…          350
    ##  8   83331 2017-04-11 00:00:00 14.72 m…           16 Steuart St at…           91
    ##  9   72424 2017-04-05 00:00:00 4.12 mi…            5 Powell St BAR…           62
    ## 10   25910 2017-04-20 00:00:00 25.77 m…           81 Berry St at 4…           81
    ## # … with 35,219 more rows, and 7 more variables: station_B_name <chr>,
    ## #   bike_id <dbl>, user_gender <chr>, user_birth_year <dbl>,
    ## #   user_birth_year_fct <fct>, duration_trimmed <chr>, duration_min_avg <dbl>
…
**Steps**

1.  Filter for rows with phone numbers that contain `"-"`s.

``` r
# 1. Filter for rows with "-" in the phone column
sfo_survey_mod %>%
  filter(phone %>% str_detect("-"))
```

    ## # A tibble: 1,421 × 15
    ##       id day   airline destination dest_region dest_size boarding_area dept_time
    ##    <int> <chr> <chr>   <chr>       <chr>       <chr>     <chr>         <chr>    
    ##  1  1844 Mond… TURKIS… ISTANBUL    Middle East Hub       Gates 91-102  2018-12-…
    ##  2  1840 Mond… TURKIS… ISTANBUL    Middle East Hub       Gates 91-102  2018-12-…
    ##  3  3010 Wedn… AMERIC… MIAMI       East US     Hub       Gates 50-59   2018-12-…
    ##  4  2097 Mond… UNITED… MEXICO CITY Canada/Mex… Hub       Gates 91-102  2018-12-…
    ##  5  1835 Mond… TURKIS… ISTANBUL    Middle East Hub       Gates 91-102  2018-12-…
    ##  6  1849 Mond… TURKIS… ISTANBUL    Middle East Hub       Gates 91-102  2018-12-…
    ##  7  2289 Wedn… QANTAS  SYDNEY      Australia/… Hub       Gates 1-12    2018-12-…
    ##  8   105 Tues… UNITED  WASHINGTON… East US     Medium    Gates 70-90   2018-12-…
    ##  9  1973 Frid… CATHAY… HONG KONG   Asia        Hub       Gates 1-12    2018-12-…
    ## 10  2385 Wedn… UNITED… SYDNEY      Australia/… Hub       Gates 91-102  2018-12-…
    ## # … with 1,411 more rows, and 7 more variables: wait_min <dbl>,
    ## #   cleanliness <chr>, safety <chr>, satisfaction <chr>, phone <chr>,
    ## #   dest_size_trimmed <chr>, cleanliness_lower <chr>

2.  Filter for rows with phone numbers that contain `"("`, or `")"`.
    Remember to use `fixed()` when searching for parentheses.

``` r
# 2. Filter for rows with "(" or ")" in the phone column
sfo_survey_mod %>%
  filter(str_detect(phone, fixed("(")) | str_detect(phone, fixed(")")))
```

    ## # A tibble: 739 × 15
    ##       id day   airline destination dest_region dest_size boarding_area dept_time
    ##    <int> <chr> <chr>   <chr>       <chr>       <chr>     <chr>         <chr>    
    ##  1  3010 Wedn… AMERIC… MIAMI       East US     Hub       Gates 50-59   2018-12-…
    ##  2  2097 Mond… UNITED… MEXICO CITY Canada/Mex… Hub       Gates 91-102  2018-12-…
    ##  3  1835 Mond… TURKIS… ISTANBUL    Middle East Hub       Gates 91-102  2018-12-…
    ##  4   105 Tues… UNITED  WASHINGTON… East US     Medium    Gates 70-90   2018-12-…
    ##  5  1973 Frid… CATHAY… HONG KONG   Asia        Hub       Gates 1-12    2018-12-…
    ##  6  2385 Wedn… UNITED… SYDNEY      Australia/… Hub       Gates 91-102  2018-12-…
    ##  7   517 Sund… UNITED  FT. LAUDER… East US     Large     Gates 60-69   2018-12-…
    ##  8  2885 Frid… EVA AIR TAIPEI      Asia        Hub       Gates 91-102  2018-12-…
    ##  9  2128 Wedn… FRONTI… DENVER      West US     Hub       Gates 20-39   2018-12-…
    ## 10  2132 Wedn… FRONTI… DENVER      West US     Hub       Gates 20-39   2018-12-…
    ## # … with 729 more rows, and 7 more variables: wait_min <dbl>,
    ## #   cleanliness <chr>, safety <chr>, satisfaction <chr>, phone <chr>,
    ## #   dest_size_trimmed <chr>, cleanliness_lower <chr>
…
# 2. Add phone_no_parens as column
sfo_survey_mod %>%
  mutate(phone_no_parens = phone_no_parens,
  # 3. Replace all hyphens in phone_no_parens with spaces
         phone_clean = str_replace_all(phone_no_parens, "-", " "))
```

    ## # A tibble: 2,809 × 17
    ##       id day   airline destination dest_region dest_size boarding_area dept_time
    ##    <int> <chr> <chr>   <chr>       <chr>       <chr>     <chr>         <chr>    
    ##  1  1842 Mond… TURKIS… ISTANBUL    Middle East Hub       Gates 91-102  2018-12-…
    ##  2  1844 Mond… TURKIS… ISTANBUL    Middle East Hub       Gates 91-102  2018-12-…
    ##  3  1840 Mond… TURKIS… ISTANBUL    Middle East Hub       Gates 91-102  2018-12-…
    ##  4  1837 Mond… TURKIS… ISTANBUL    Middle East Hub       Gates 91-102  2018-12-…
    ##  5  1833 Mond… TURKIS… ISTANBUL    Middle East Hub       Gates 91-102  2018-12-…
    ##  6  3010 Wedn… AMERIC… MIAMI       East US     Hub       Gates 50-59   2018-12-…
    ##  7  1838 Mond… TURKIS… ISTANBUL    Middle East Hub       Gates 91-102  2018-12-…
    ##  8  1845 Mond… TURKIS… ISTANBUL    Middle East Hub       Gates 91-102  2018-12-…
    ##  9  2097 Mond… UNITED… MEXICO CITY Canada/Mex… Hub       Gates 91-102  2018-12-…
    ## 10  1846 Mond… TURKIS… ISTANBUL    Middle East Hub       Gates 91-102  2018-12-…
    ## # … with 2,799 more rows, and 9 more variables: wait_min <dbl>,
    ## #   cleanliness <chr>, safety <chr>, satisfaction <chr>, phone <chr>,
    ## #   dest_size_trimmed <chr>, cleanliness_lower <chr>, phone_no_parens <chr>,
    ## #   phone_clean <chr>
…
2.  Remove the rows with invalid numbers by filtering for numbers with a
    length of exactly 12.

``` r
# Remove rows with invalid numbers
sfo_survey_mod %>%
  filter(str_length(phone_no_parens) == 12)
```

    ## # A tibble: 2,804 × 15
    ##       id day   airline destination dest_region dest_size boarding_area dept_time
    ##    <int> <chr> <chr>   <chr>       <chr>       <chr>     <chr>         <chr>    
    ##  1  1842 Mond… TURKIS… ISTANBUL    Middle East Hub       Gates 91-102  2018-12-…
    ##  2  1844 Mond… TURKIS… ISTANBUL    Middle East Hub       Gates 91-102  2018-12-…
    ##  3  1840 Mond… TURKIS… ISTANBUL    Middle East Hub       Gates 91-102  2018-12-…
    ##  4  1837 Mond… TURKIS… ISTANBUL    Middle East Hub       Gates 91-102  2018-12-…
    ##  5  1833 Mond… TURKIS… ISTANBUL    Middle East Hub       Gates 91-102  2018-12-…
    ##  6  3010 Wedn… AMERIC… MIAMI       East US     Hub       Gates 50-59   2018-12-…
    ##  7  1838 Mond… TURKIS… ISTANBUL    Middle East Hub       Gates 91-102  2018-12-…
    ##  8  1845 Mond… TURKIS… ISTANBUL    Middle East Hub       Gates 91-102  2018-12-…
    ##  9  2097 Mond… UNITED… MEXICO CITY Canada/Mex… Hub       Gates 91-102  2018-12-…
    ## 10  1846 Mond… TURKIS… ISTANBUL    Middle East Hub       Gates 91-102  2018-12-…
    ## # … with 2,794 more rows, and 7 more variables: wait_min <dbl>,
    ## #   cleanliness <chr>, safety <chr>, satisfaction <chr>, phone <chr>,
    ## #   dest_size_trimmed <chr>, cleanliness_lower <chr>
…
1.  Convert the dates in the `date_opened` column to the same format
    using the `formats` vector and store this as a new column called
    `date_opened_clean`.

``` r
# 1.1 Define the date formats
formats <- c("%Y-%m-%d", "%B %d, %Y")

# 1.2 Convert dates to the same format
accounts %>%
  mutate(date_opened_clean = parse_date_time(date_opened,  orders = formats))
```

    ## # A tibble: 98 × 4
    ##    id       date_opened          total date_opened_clean  
    ##    <fct>    <chr>                <dbl> <dttm>             
    ##  1 A880C79F 2003-10-19          169305 2003-10-19 00:00:00
    ##  2 BE8222DF October 05, 2018    107460 2018-10-05 00:00:00
    ##  3 19F9E113 2008-07-29        15297152 2008-07-29 00:00:00
    ##  4 A2FE52A3 2005-06-09        14897272 2005-06-09 00:00:00
    ##  5 F6DC2C08 2012-03-31          124568 2012-03-31 00:00:00
    ##  6 D2E55799 2007-06-20        13635752 2007-06-20 00:00:00
    ##  7 53AE87EF December 01, 2017 15375984 2017-12-01 00:00:00
    ##  8 3E97F253 2019-06-03        14515800 2019-06-03 00:00:00
    ##  9 4AE79EA1 2011-05-07        23338536 2011-05-07 00:00:00
    ## 10 2322DFB4 2018-04-07          189524 2018-04-07 00:00:00
    ## # … with 88 more rows
…
2.  Left join `accounts` and `account_offices` by their `id` columns.

``` r
account_offices <- readRDS("data/account_offices.rds")

# 2. Left join accounts and account_offices by id
accounts %>%
  left_join(account_offices)
```

    ## Joining, by = "id"

    ## # A tibble: 98 × 4
    ##    id       date_opened          total office  
    ##    <fct>    <chr>                <dbl> <chr>   
    ##  1 A880C79F 2003-10-19          169305 New York
    ##  2 BE8222DF October 05, 2018    107460 New York
    ##  3 19F9E113 2008-07-29        15297152 Tokyo   
    ##  4 A2FE52A3 2005-06-09        14897272 Tokyo   
    ##  5 F6DC2C08 2012-03-31          124568 New York
    ##  6 D2E55799 2007-06-20        13635752 Tokyo   
    ##  7 53AE87EF December 01, 2017 15375984 Tokyo   
    ##  8 3E97F253 2019-06-03        14515800 Tokyo   
    ##  9 4AE79EA1 2011-05-07        23338536 Tokyo   
    ## 10 2322DFB4 2018-04-07          189524 New York
    ## # … with 88 more rows

3.  Convert the `total`s from the Tokyo office from yen to dollars, and
    keep the `total` from the New York office in dollars. Store this as
    a new column called `total_usd`.

``` r
# Left join accounts to account_offices by id
accounts %>%
  left_join(account_offices, by = "id") %>%
  # 3. Convert totals from the Tokyo office to USD
  mutate(total_usd = ifelse(total > 5000000, total / 104, total))
```

    ## # A tibble: 98 × 5
    ##    id       date_opened          total office   total_usd
    ##    <fct>    <chr>                <dbl> <chr>        <dbl>
    ##  1 A880C79F 2003-10-19          169305 New York    169305
    ##  2 BE8222DF October 05, 2018    107460 New York    107460
    ##  3 19F9E113 2008-07-29        15297152 Tokyo       147088
    ##  4 A2FE52A3 2005-06-09        14897272 Tokyo       143243
    ##  5 F6DC2C08 2012-03-31          124568 New York    124568
    ##  6 D2E55799 2007-06-20        13635752 Tokyo       131113
    ##  7 53AE87EF December 01, 2017 15375984 Tokyo       147846
    ##  8 3E97F253 2019-06-03        14515800 Tokyo       139575
    ##  9 4AE79EA1 2011-05-07        23338536 Tokyo       224409
    ## 10 2322DFB4 2018-04-07          189524 New York    189524
    ## # … with 88 more rows
…
1.  Filter `accounts` to remove rows with missing `cust_id`s and save as
    `accounts_clean`.

``` r
accounts_new2 <- readRDS("data/accounts_new2.rds")

# 1. Create accounts_clean
accounts_clean <- accounts_new2 %>%
  # Filter to remove rows with missing cust_id
  filter(!is.na(cust_id))

accounts_clean
```

    ## # A tibble: 88 × 5
    ##    cust_id  acct_amount inv_amount account_opened last_transaction
    ##    <fct>          <dbl>      <dbl> <fct>          <fct>           
    ##  1 8C35540A      44245.     35500. 03-05-18       30-09-19        
    ##  2 D5536652         NA      81922. 21-01-18       14-01-19        
    ##  3 A631984D         NA      46412. 26-01-18       06-10-19        
    ##  4 93F2F951         NA      76563. 21-08-17       10-07-19        
    ##  5 DE0A0882         NA      18669. 05-06-17       15-01-19        
    ##  6 25E68E1B     109738.     93553. 26-12-17       12-11-18        
    ##  7 3FA9296D         NA      70358. 21-06-18       24-08-18        
    ##  8 984403B9         NA      14430. 07-10-17       18-05-18        
    ##  9 870A9281      63523.     51297. 02-09-18       22-02-19        
    ## 10 166B05B0      38175.     15053. 28-02-19       31-10-18        
    ## # … with 78 more rows
…
``` r
# 2. Create accounts_clean
accounts_clean <- accounts_new2 %>%
  # Filter to remove rows with missing cust_id
  filter(!is.na(cust_id)) %>%
  # Add new col acct_amount_filled with replaced NAs
  mutate(acct_amount_filled = ifelse(is.na(acct_amount), 5 * inv_amount, acct_amount))

accounts_clean
```

    ## # A tibble: 88 × 6
    ##    cust_id  acct_amount inv_amount account_opened last_transaction
    ##    <fct>          <dbl>      <dbl> <fct>          <fct>           
    ##  1 8C35540A      44245.     35500. 03-05-18       30-09-19        
    ##  2 D5536652         NA      81922. 21-01-18       14-01-19        
    ##  3 A631984D         NA      46412. 26-01-18       06-10-19        
    ##  4 93F2F951         NA      76563. 21-08-17       10-07-19        
    ##  5 DE0A0882         NA      18669. 05-06-17       15-01-19        
    ##  6 25E68E1B     109738.     93553. 26-12-17       12-11-18        
    ##  7 3FA9296D         NA      70358. 21-06-18       24-08-18        
    ##  8 984403B9         NA      14430. 07-10-17       18-05-18        
    ##  9 870A9281      63523.     51297. 02-09-18       22-02-19        
    ## 10 166B05B0      38175.     15053. 28-02-19       31-10-18        
    ## # … with 78 more rows, and 1 more variable: acct_amount_filled <dbl>
…
-   `fuzzyjoin`

**Steps**

1.  Count the number of each variation of `city` name in `zagat`.

``` r
zagat_mod <- readRDS("data/zagat_mod.rds")

# 1. Count the number of each city variation
zagat_mod %>%
  count(city)
```

    ## # A tibble: 63 × 2
    ##    city             n
    ##    <chr>        <int>
    ##  1 aatlanta         3
    ##  2 an francisco     1
    ##  3 aotlanta         2
    ##  4 atalanta         1
    ##  5 atanta           1
    ##  6 atlannta         2
    ##  7 atlanta         48
    ##  8 atlata           2
    ##  9 ew york          2
    ## 10 la vegas         2
    ## # … with 53 more rows
…
``` r
# Library
library(fuzzyjoin)

cities <- tibble(city_actual = c("new york", "los angeles", "atlanta", "san francisco", "las vegas"))

# Join zagat and cities and look at results
zagat_mod %>%
  # 2. Left join based on stringdist using city and city_actual cols
  stringdist_left_join(cities, by = c("city" = "city_actual"), method = "dl") %>%
  # 3. Select the name, city, and city_actual cols
  select(name, city, city_actual)
```

    ## # A tibble: 310 × 3
    ##    name                      city         city_actual
    ##    <chr>                     <chr>        <chr>      
    ##  1 apple pan the             llos angeles los angeles
    ##  2 asahi ramen               los angeles  los angeles
    ##  3 baja fresh                los angeles  los angeles
    ##  4 belvedere the             los angeles  los angeles
    ##  5 benita's frites           lo angeles   los angeles
    ##  6 bernard's                 los angeles  los angeles
    ##  7 bistro 45                 lo angeles   los angeles
    ##  8 brighton coffee shop      los angeles  los angeles
    ##  9 bristol farms market cafe los anegeles los angeles
    ## 10 cafe'50s                  los angeles  los angeles
    ## # … with 300 more rows
…
    ## Warning: `group_by_()` was deprecated in dplyr 0.7.0.
    ## Please use `group_by()` instead.
    ## See vignette('programming') for more help
    ## This warning is displayed once every 8 hours.
    ## Call `lifecycle::last_lifecycle_warnings()` to see where this warning was generated.

    ## # A tibble: 535 × 6
    ##     id.x name.x                    city.x       id.y name.y            city.y   
    ##    <int> <chr>                     <fct>       <int> <chr>             <fct>    
    ##  1     0 apple pan the             los angeles   124 california pizza… los ange…
    ##  2     1 asahi ramen               los angeles   128 chan dara         los ange…
    ##  3     2 baja fresh                los angeles   121 ca  ` brea        los ange…
    ##  4     3 belvedere the             los angeles   131 dive !            los ange…
    ##  5     4 benita's frites           los angeles   149 louise's trattor… los ange…
    ##  6     5 bernard's                 los angeles   172 trader vic's      los ange…
    ##  7     6 bistro 45                 los angeles   118 bistro garden     los ange…
    ##  8     8 brighton coffee shop      los angeles   139 gladstone's       los ange…
    ##  9     9 bristol farms market cafe los angeles   129 clearwater cafe   los ange…
    ## 10    11 cafe'50s                  los angeles   157 paty's            los ange…
    ## # … with 525 more rows
…
