…
    ## The following objects are masked from 'package:stats':
    ## 
    ##     filter, lag

    ## The following objects are masked from 'package:base':
    ## 
    ##     intersect, setdiff, setequal, union

``` r
# 1. Print the votes dataset
votes <- readRDS("data/votes.rds")
votes
```

    ## # A tibble: 508,929 × 4
    ##     rcid session  vote ccode
    ##    <dbl>   <dbl> <dbl> <int>
    ##  1    46       2     1     2
    ##  2    46       2     1    20
    ##  3    46       2     9    31
    ##  4    46       2     1    40
    ##  5    46       2     1    41
    ##  6    46       2     1    42
    ##  7    46       2     9    51
    ##  8    46       2     9    52
    ##  9    46       2     9    53
    ## 10    46       2     9    54
    ## # … with 508,919 more rows

2.  Filter out rows where the vote recorded is “not present” or “not a
    member”, leaving cases where it is “yes”, “abstain”, or “no”.

``` r
# 2. Filter for votes that are "yes", "abstain", or "no"
votes %>%
 filter(vote <= 3)
```

    ## # A tibble: 353,547 × 4
    ##     rcid session  vote ccode
    ##    <dbl>   <dbl> <dbl> <int>
    ##  1    46       2     1     2
    ##  2    46       2     1    20
    ##  3    46       2     1    40
    ##  4    46       2     1    41
    ##  5    46       2     1    42
    ##  6    46       2     1    70
    ##  7    46       2     1    90
    ##  8    46       2     1    91
    ##  9    46       2     1    92
    ## 10    46       2     1    93
    ## # … with 353,537 more rows
…
**Steps**

1.  Use `mutate()` to add a `year` column by adding 1945 to the
    `session` column.

``` r
# 1. Add another %>% step to add a year column
votes %>%
  filter(vote <= 3) %>%
  mutate(year = session + 1945)
```

    ## # A tibble: 353,547 × 5
    ##     rcid session  vote ccode  year
    ##    <dbl>   <dbl> <dbl> <int> <dbl>
    ##  1    46       2     1     2  1947
    ##  2    46       2     1    20  1947
    ##  3    46       2     1    40  1947
    ##  4    46       2     1    41  1947
    ##  5    46       2     1    42  1947
    ##  6    46       2     1    70  1947
    ##  7    46       2     1    90  1947
    ##  8    46       2     1    91  1947
    ##  9    46       2     1    92  1947
    ## 10    46       2     1    93  1947
    ## # … with 353,537 more rows
…
**Steps**

1.  Print the `votes_processed` dataset that you created in the previous
    exercise.

``` r
# 1. Print votes_processed
votes_processed
```

    ## # A tibble: 353,547 × 6
    ##     rcid session  vote ccode  year votes_processed   
    ##    <dbl>   <dbl> <dbl> <int> <dbl> <chr>             
    ##  1    46       2     1     2  1947 United States     
    ##  2    46       2     1    20  1947 Canada            
    ##  3    46       2     1    40  1947 Cuba              
    ##  4    46       2     1    41  1947 Haiti             
    ##  5    46       2     1    42  1947 Dominican Republic
    ##  6    46       2     1    70  1947 Mexico            
    ##  7    46       2     1    90  1947 Guatemala         
    ##  8    46       2     1    91  1947 Honduras          
    ##  9    46       2     1    92  1947 El Salvador       
    ## 10    46       2     1    93  1947 Nicaragua         
    ## # … with 353,537 more rows
…
**Steps**

1.  Add a `group_by()` to your code to `summarize()` within each year.

``` r
# 1. Change this code to summarize by year
votes_processed %>%
  group_by(year) %>%
  summarize(total = n(),
            percent_yes = mean(vote == 1))
```

    ## # A tibble: 34 × 3
    ##     year total percent_yes
    ##    <dbl> <int>       <dbl>
    ##  1  1947  2039       0.569
    ##  2  1949  3469       0.438
    ##  3  1951  1434       0.585
    ##  4  1953  1537       0.632
    ##  5  1955  2169       0.695
    ##  6  1957  2708       0.609
    ##  7  1959  4326       0.588
    ##  8  1961  7482       0.573
    ##  9  1963  3308       0.729
    ## 10  1965  4382       0.708
    ## # … with 24 more rows
…
For example, you might be especially interested in the countries that
voted “yes” least often, or the ones that voted “yes” most often.

**Steps**

1.  Print the `by_country` dataset created in the last step.

``` r
# 1. Print the by_country dataset
by_country
```

    ## # A tibble: 200 × 3
    ##    country           total percent_yes
    ##    <chr>             <int>       <dbl>
    ##  1 Afghanistan        2373       0.859
    ##  2 Albania            1695       0.717
    ##  3 Algeria            2213       0.899
    ##  4 Andorra             719       0.638
    ##  5 Angola             1431       0.924
    ##  6 Antigua & Barbuda  1302       0.912
    ##  7 Argentina          2553       0.768
    ##  8 Armenia             758       0.747
    ##  9 Australia          2575       0.557
    ## 10 Austria            2389       0.622
    ## # … with 190 more rows

2.  Use `arrange()` to sort the countries in ascending order of
    `percent_yes`.

``` r
# 2. Sort in ascending order of percent_yes
by_country %>%
  arrange(percent_yes)
```

    ## # A tibble: 200 × 3
    ##    country                          total percent_yes
    ##    <chr>                            <int>       <dbl>
    ##  1 Zanzibar                             2       0    
    ##  2 United States                     2568       0.269
    ##  3 Palau                              369       0.339
    ##  4 Israel                            2380       0.341
    ##  5 <NA>                              1075       0.397
    ##  6 United Kingdom                    2558       0.417
    ##  7 France                            2527       0.427
    ##  8 Micronesia (Federated States of)   724       0.442
    ##  9 Marshall Islands                   757       0.491
    ## 10 Belgium                           2568       0.492
    ## # … with 190 more rows

3.  Arrange the countries by the same variable, but in descending order.

``` r
# 3. Now sort in descending order
by_country %>%
  arrange(-percent_yes)
```

    ## # A tibble: 200 × 3
    ##    country              total percent_yes
    ##    <chr>                <int>       <dbl>
    ##  1 São Tomé & Príncipe   1091       0.976
    ##  2 Seychelles             881       0.975
    ##  3 Djibouti              1598       0.961
    ##  4 Guinea-Bissau         1538       0.960
    ##  5 Timor-Leste            326       0.957
    ##  6 Mauritius             1831       0.950
    ##  7 Zimbabwe              1361       0.949
    ##  8 Comoros               1133       0.947
    ##  9 United Arab Emirates  1934       0.947
    ## 10 Mozambique            1701       0.947
    ## # … with 190 more rows
…
**Steps**

1.  Use `filter()` to remove from the sorted data countries that have
    fewer than 100 votes.

``` r
# 1. Filter out countries with fewer than 100 votes
by_country %>%
  arrange(percent_yes) %>%
  filter(total >= 100)
```

    ## # A tibble: 197 × 3
    ##    country                          total percent_yes
    ##    <chr>                            <int>       <dbl>
    ##  1 United States                     2568       0.269
    ##  2 Palau                              369       0.339
    ##  3 Israel                            2380       0.341
    ##  4 <NA>                              1075       0.397
    ##  5 United Kingdom                    2558       0.417
    ##  6 France                            2527       0.427
    ##  7 Micronesia (Federated States of)   724       0.442
    ##  8 Marshall Islands                   757       0.491
    ##  9 Belgium                           2568       0.492
    ## 10 Canada                            2576       0.508
    ## # … with 187 more rows
…
This will involve using `filter()` on your data before giving it to
`ggplot2`.

**Steps**

1.  Print the `by_year_country` dataset.

``` r
# 1. Print by_year_country
by_year_country
```

    ## # A tibble: 4,744 × 4
    ## # Groups:   year [34]
    ##     year country     total percent_yes
    ##    <dbl> <chr>       <int>       <dbl>
    ##  1  1947 Afghanistan    34       0.382
    ##  2  1947 Argentina      38       0.579
    ##  3  1947 Australia      38       0.553
    ##  4  1947 Belarus        38       0.5  
    ##  5  1947 Belgium        38       0.605
    ##  6  1947 Bolivia        37       0.595
    ##  7  1947 Brazil         38       0.658
    ##  8  1947 Canada         38       0.605
    ##  9  1947 Chile          38       0.658
    ## 10  1947 Colombia       35       0.543
    ## # … with 4,734 more rows
…
**Steps**

1.  Print the `US_by_year` data to the console.

``` r
# Percentage of yes votes from the US by year: US_by_year
US_by_year <- by_year_country %>%
  filter(country == "United States")

# 1. Print the US_by_year data
US_by_year
```

    ## # A tibble: 34 × 4
    ## # Groups:   year [34]
    ##     year country       total percent_yes
    ##    <dbl> <chr>         <int>       <dbl>
    ##  1  1947 United States    38       0.711
    ##  2  1949 United States    64       0.281
    ##  3  1951 United States    25       0.4  
    ##  4  1953 United States    26       0.5  
    ##  5  1955 United States    37       0.622
    ##  6  1957 United States    34       0.647
    ##  7  1959 United States    54       0.426
    ##  8  1961 United States    75       0.507
    ##  9  1963 United States    32       0.5  
    ## 10  1965 United States    41       0.366
    ## # … with 24 more rows
…
``` r
# 1. Load the tidyr package
library(tidyr)
# 2.Nest all columns besides country
by_year_country %>%
    nest(-country)
```

    ## Warning: All elements of `...` must be named.
    ## Did you want `data = c(year, total, percent_yes)`?

    ## # A tibble: 200 × 2
    ##    country     data                 
    ##    <chr>       <list>               
    ##  1 Afghanistan <grouped_df [34 × 3]>
    ##  2 Argentina   <grouped_df [34 × 3]>
    ##  3 Australia   <grouped_df [34 × 3]>
    ##  4 Belarus     <grouped_df [34 × 3]>
    ##  5 Belgium     <grouped_df [34 × 3]>
    ##  6 Bolivia     <grouped_df [34 × 3]>
    ##  7 Brazil      <grouped_df [34 × 3]>
    ##  8 Canada      <grouped_df [34 × 3]>
    ##  9 Chile       <grouped_df [34 × 3]>
    ## 10 Colombia    <grouped_df [34 × 3]>
    ## # … with 190 more rows
…
``` r
# All countries are nested besides country
nested <- by_year_country %>%
  nest(-country)
```

    ## Warning: All elements of `...` must be named.
    ## Did you want `data = c(year, total, percent_yes)`?

``` r
# Print the nested data for Brazil
nested$data[[7]]
```

    ## # A tibble: 34 × 3
    ## # Groups:   year [34]
    ##     year total percent_yes
    ##    <dbl> <int>       <dbl>
    ##  1  1947    38       0.658
    ##  2  1949    64       0.469
    ##  3  1951    25       0.64 
    ##  4  1953    26       0.731
    ##  5  1955    37       0.730
    ##  6  1957    34       0.735
    ##  7  1959    54       0.537
    ##  8  1961    76       0.553
    ##  9  1963    32       0.781
    ## 10  1965    41       0.610
    ## # … with 24 more rows
…
In this exercise, you are just undoing the `nest()` operation. In the
next section, you’ll learn how to fit a model in between these nesting
and unnesting steps that makes this process useful.

**Steps**

1.  Unnest the `data` list column, so that the table again has one row
    for each country-year pair, much like `by_year_country`.

``` r
# 1. Unnest the data column to return it to its original form
nested %>% unnest(data)
```

    ## # A tibble: 4,744 × 4
    ##    country      year total percent_yes
    ##    <chr>       <dbl> <int>       <dbl>
    ##  1 Afghanistan  1947    34       0.382
    ##  2 Afghanistan  1949    51       0.608
    ##  3 Afghanistan  1951    25       0.76 
    ##  4 Afghanistan  1953    26       0.769
    ##  5 Afghanistan  1955    37       0.730
    ##  6 Afghanistan  1957    34       0.529
    ##  7 Afghanistan  1959    54       0.611
    ##  8 Afghanistan  1961    76       0.605
    ##  9 Afghanistan  1963    32       0.781
    ## 10 Afghanistan  1965    40       0.85 
    ## # … with 4,734 more rows
…
``` r
# Load tidyr and purrr
library(tidyr)
library(purrr)

# Perform a linear regression on each item in the data column
by_year_country %>%
  nest(-country) %>%
  mutate(model = map(data, ~ lm(percent_yes ~ year, data = .)))
```

    ## Warning: All elements of `...` must be named.
    ## Did you want `data = c(year, total, percent_yes)`?

    ## # A tibble: 200 × 3
    ##    country     data                  model 
    ##    <chr>       <list>                <list>
    ##  1 Afghanistan <grouped_df [34 × 3]> <lm>  
    ##  2 Argentina   <grouped_df [34 × 3]> <lm>  
    ##  3 Australia   <grouped_df [34 × 3]> <lm>  
    ##  4 Belarus     <grouped_df [34 × 3]> <lm>  
    ##  5 Belgium     <grouped_df [34 × 3]> <lm>  
    ##  6 Bolivia     <grouped_df [34 × 3]> <lm>  
    ##  7 Brazil      <grouped_df [34 × 3]> <lm>  
    ##  8 Canada      <grouped_df [34 × 3]> <lm>  
    ##  9 Chile       <grouped_df [34 × 3]> <lm>  
    ## 10 Colombia    <grouped_df [34 × 3]> <lm>  
    ## # … with 190 more rows
…
``` r
# Load the broom package
library(broom)

# Add another mutate that applies tidy() to each model
by_year_country %>%
  nest(-country) %>%
  mutate(model = map(data, ~ lm(percent_yes ~ year, data = .))) %>%
  mutate(tidied = map(model, tidy))
```

    ## Warning: All elements of `...` must be named.
    ## Did you want `data = c(year, total, percent_yes)`?

    ## # A tibble: 200 × 4
    ##    country     data                  model  tidied          
    ##    <chr>       <list>                <list> <list>          
    ##  1 Afghanistan <grouped_df [34 × 3]> <lm>   <tibble [2 × 5]>
    ##  2 Argentina   <grouped_df [34 × 3]> <lm>   <tibble [2 × 5]>
    ##  3 Australia   <grouped_df [34 × 3]> <lm>   <tibble [2 × 5]>
    ##  4 Belarus     <grouped_df [34 × 3]> <lm>   <tibble [2 × 5]>
    ##  5 Belgium     <grouped_df [34 × 3]> <lm>   <tibble [2 × 5]>
    ##  6 Bolivia     <grouped_df [34 × 3]> <lm>   <tibble [2 × 5]>
    ##  7 Brazil      <grouped_df [34 × 3]> <lm>   <tibble [2 × 5]>
    ##  8 Canada      <grouped_df [34 × 3]> <lm>   <tibble [2 × 5]>
    ##  9 Chile       <grouped_df [34 × 3]> <lm>   <tibble [2 × 5]>
    ## 10 Colombia    <grouped_df [34 × 3]> <lm>   <tibble [2 × 5]>
    ## # … with 190 more rows
…
    ## Warning: All elements of `...` must be named.
    ## Did you want `data = c(year, total, percent_yes)`?

``` r
# Print the resulting country_coefficients variable
country_coefficients
```

    ## # A tibble: 400 × 8
    ##    country     data        model  term    estimate std.error statistic   p.value
    ##    <chr>       <list>      <list> <chr>      <dbl>     <dbl>     <dbl>     <dbl>
    ##  1 Afghanistan <grouped_d… <lm>   (Inter… -1.11e+1  1.47         -7.52   1.44e-8
    ##  2 Afghanistan <grouped_d… <lm>   year     6.01e-3  0.000743      8.09   3.06e-9
    ##  3 Argentina   <grouped_d… <lm>   (Inter… -9.46e+0  2.10         -4.50   8.32e-5
    ##  4 Argentina   <grouped_d… <lm>   year     5.15e-3  0.00106       4.85   3.05e-5
    ##  5 Australia   <grouped_d… <lm>   (Inter… -4.55e+0  2.15         -2.12   4.22e-2
    ##  6 Australia   <grouped_d… <lm>   year     2.57e-3  0.00108       2.37   2.42e-2
    ##  7 Belarus     <grouped_d… <lm>   (Inter… -7.00e+0  1.50         -4.66   5.33e-5
    ##  8 Belarus     <grouped_d… <lm>   year     3.91e-3  0.000759      5.15   1.28e-5
    ##  9 Belgium     <grouped_d… <lm>   (Inter… -5.85e+0  1.52         -3.86   5.22e-4
    ## 10 Belgium     <grouped_d… <lm>   year     3.20e-3  0.000765      4.19   2.07e-4
    ## # … with 390 more rows
…
**Steps**

1.  Print the `country_coefficients` data frame to the console.
2.  Perform a `filter()` step that extracts only the slope (not
    intercept) terms.

``` r
# Print the country_coefficients dataset
country_coefficients
```

    ## # A tibble: 400 × 8
    ##    country     data        model  term    estimate std.error statistic   p.value
    ##    <chr>       <list>      <list> <chr>      <dbl>     <dbl>     <dbl>     <dbl>
    ##  1 Afghanistan <grouped_d… <lm>   (Inter… -1.11e+1  1.47         -7.52   1.44e-8
    ##  2 Afghanistan <grouped_d… <lm>   year     6.01e-3  0.000743      8.09   3.06e-9
    ##  3 Argentina   <grouped_d… <lm>   (Inter… -9.46e+0  2.10         -4.50   8.32e-5
    ##  4 Argentina   <grouped_d… <lm>   year     5.15e-3  0.00106       4.85   3.05e-5
    ##  5 Australia   <grouped_d… <lm>   (Inter… -4.55e+0  2.15         -2.12   4.22e-2
    ##  6 Australia   <grouped_d… <lm>   year     2.57e-3  0.00108       2.37   2.42e-2
    ##  7 Belarus     <grouped_d… <lm>   (Inter… -7.00e+0  1.50         -4.66   5.33e-5
    ##  8 Belarus     <grouped_d… <lm>   year     3.91e-3  0.000759      5.15   1.28e-5
    ##  9 Belgium     <grouped_d… <lm>   (Inter… -5.85e+0  1.52         -3.86   5.22e-4
    ## 10 Belgium     <grouped_d… <lm>   year     3.20e-3  0.000765      4.19   2.07e-4
    ## # … with 390 more rows

``` r
# Filter for only the slope terms
country_coefficients %>%
 filter(term == "year")
```

    ## # A tibble: 200 × 8
    ##    country     data          model  term  estimate std.error statistic   p.value
    ##    <chr>       <list>        <list> <chr>    <dbl>     <dbl>     <dbl>     <dbl>
    ##  1 Afghanistan <grouped_df … <lm>   year   0.00601  0.000743      8.09   3.06e-9
    ##  2 Argentina   <grouped_df … <lm>   year   0.00515  0.00106       4.85   3.05e-5
    ##  3 Australia   <grouped_df … <lm>   year   0.00257  0.00108       2.37   2.42e-2
    ##  4 Belarus     <grouped_df … <lm>   year   0.00391  0.000759      5.15   1.28e-5
    ##  5 Belgium     <grouped_df … <lm>   year   0.00320  0.000765      4.19   2.07e-4
    ##  6 Bolivia     <grouped_df … <lm>   year   0.00580  0.000966      6.01   1.06e-6
    ##  7 Brazil      <grouped_df … <lm>   year   0.00611  0.000817      7.48   1.64e-8
    ##  8 Canada      <grouped_df … <lm>   year   0.00152  0.000955      1.59   1.22e-1
    ##  9 Chile       <grouped_df … <lm>   year   0.00678  0.000822      8.24   2.05e-9
    ## 10 Colombia    <grouped_df … <lm>   year   0.00616  0.000965      6.38   3.58e-7
    ## # … with 190 more rows
…
``` r
# Filter for only the slope terms
slope_terms <- country_coefficients %>%
  filter(term == "year")

# Add p.adjusted column, then filter
slope_terms %>%
  mutate(p.adjusted = p.adjust(p.value)) %>%
  filter(p.adjusted < 0.05)
```

    ## # A tibble: 61 × 9
    ##    country     data  model term  estimate std.error statistic p.value p.adjusted
    ##    <chr>       <lis> <lis> <chr>    <dbl>     <dbl>     <dbl>   <dbl>      <dbl>
    ##  1 Afghanistan <gro… <lm>  year   0.00601  0.000743      8.09 3.06e-9    5.95e-7
    ##  2 Argentina   <gro… <lm>  year   0.00515  0.00106       4.85 3.05e-5    4.81e-3
    ##  3 Belarus     <gro… <lm>  year   0.00391  0.000759      5.15 1.28e-5    2.08e-3
    ##  4 Belgium     <gro… <lm>  year   0.00320  0.000765      4.19 2.07e-4    3.01e-2
    ##  5 Bolivia     <gro… <lm>  year   0.00580  0.000966      6.01 1.06e-6    1.88e-4
    ##  6 Brazil      <gro… <lm>  year   0.00611  0.000817      7.48 1.64e-8    3.12e-6
    ##  7 Chile       <gro… <lm>  year   0.00678  0.000822      8.24 2.05e-9    3.99e-7
    ##  8 Colombia    <gro… <lm>  year   0.00616  0.000965      6.38 3.58e-7    6.56e-5
    ##  9 Costa Rica  <gro… <lm>  year   0.00654  0.000812      8.05 3.39e-9    6.54e-7
    ## 10 Cuba        <gro… <lm>  year   0.00461  0.000721      6.40 3.43e-7    6.31e-5
    ## # … with 51 more rows
…
