…
# Read all columns as factors
comics <- read_csv("data/comics.csv", col_types = cols(.default = "f")) |> 
  
            # Convert "NA" levels to real missing values
            mutate(across(where(is.factor), fct_recode, NULL = "NA")) |> 
  
            # Relevel columns
            mutate(align  = align  |> fct_relevel(levels = "Bad", "Good", "Neutral")) |> 
            mutate(gender = gender |> fct_relevel(levels = "Female", "Male", "Other"))

# Print the first rows of the data
comics
```

    ## # A tibble: 23,272 × 11
    ##    name     id     align eye   hair  gender gsm   alive appearances first_appear
    ##    <fct>    <fct>  <fct> <fct> <fct> <fct>  <fct> <fct> <fct>       <fct>       
    ##  1 "Spider… Secret Good  Haze… Brow… Male   <NA>  Livi… 4043        Aug-62      
    ##  2 "Captai… Public Good  Blue… Whit… Male   <NA>  Livi… 3360        Mar-41      
    ##  3 "Wolver… Public Neut… Blue… Blac… Male   <NA>  Livi… 3061        Oct-74      
    ##  4 "Iron M… Public Good  Blue… Blac… Male   <NA>  Livi… 2961        Mar-63      
    ##  5 "Thor (… No Du… Good  Blue… Blon… Male   <NA>  Livi… 2258        Nov-50      
    ##  6 "Benjam… Public Good  Blue… No H… Male   <NA>  Livi… 2255        Nov-61      
    ##  7 "Reed R… Public Good  Brow… Brow… Male   <NA>  Livi… 2072        Nov-61      
    ##  8 "Hulk (… Public Good  Brow… Brow… Male   <NA>  Livi… 2017        May-62      
    ##  9 "Scott … Public Neut… Brow… Brow… Male   <NA>  Livi… 1955        Sep-63      
    ## 10 "Jonath… Public Good  Blue… Blon… Male   <NA>  Livi… 1934        Nov-61      
    ## # … with 23,262 more rows, and 1 more variable: publisher <fct>
…
# 1.2 forcats: Remove align level
# comics_filtered <- comics %>%
#   filter(align != "Reformed Criminals") |> 
#   mutate(across(where(is.factor), fct_drop))

# See the result
comics_filtered
```

    ## # A tibble: 19,856 × 11
    ##    name     id     align eye   hair  gender gsm   alive appearances first_appear
    ##    <fct>    <fct>  <fct> <fct> <fct> <fct>  <fct> <fct> <fct>       <fct>       
    ##  1 "Spider… Secret Good  Haze… Brow… Male   <NA>  Livi… 4043        Aug-62      
    ##  2 "Captai… Public Good  Blue… Whit… Male   <NA>  Livi… 3360        Mar-41      
    ##  3 "Wolver… Public Neut… Blue… Blac… Male   <NA>  Livi… 3061        Oct-74      
    ##  4 "Iron M… Public Good  Blue… Blac… Male   <NA>  Livi… 2961        Mar-63      
    ##  5 "Thor (… No Du… Good  Blue… Blon… Male   <NA>  Livi… 2258        Nov-50      
    ##  6 "Benjam… Public Good  Blue… No H… Male   <NA>  Livi… 2255        Nov-61      
    ##  7 "Reed R… Public Good  Brow… Brow… Male   <NA>  Livi… 2072        Nov-61      
    ##  8 "Hulk (… Public Good  Brow… Brow… Male   <NA>  Livi… 2017        May-62      
    ##  9 "Scott … Public Neut… Brow… Brow… Male   <NA>  Livi… 1955        Sep-63      
    ## 10 "Jonath… Public Good  Blue… Blon… Male   <NA>  Livi… 1934        Nov-61      
    ## # … with 19,846 more rows, and 1 more variable: publisher <fct>
…
