…
    ## # A tibble: 2 × 5
    ##   term          estimate std.error statistic   p.value
    ##   <chr>            <dbl>     <dbl>     <dbl>     <dbl>
    ## 1 (Intercept)      8.22     0.285       28.9 5.81e-101
    ## 2 n_convenience    0.798    0.0565      14.1 3.41e- 37

2.  Augment the model to print the observation-level elements of
    `mdl_price_vs_conv`.

``` r
# Get the observation-level elements of the model
augment(mdl_price_vs_conv)
```

    ## # A tibble: 414 × 8
    ##    price_twd_msq n_convenience .fitted .resid    .hat .sigma  .cooksd .std.resid
    ##            <dbl>         <dbl>   <dbl>  <dbl>   <dbl>  <dbl>    <dbl>      <dbl>
    ##  1         11.5             10   16.2  -4.74  0.0121    3.38  1.22e-2     -1.41 
    ##  2         12.8              9   15.4  -2.64  0.00913   3.39  2.83e-3     -0.783
    ##  3         14.3              5   12.2   2.10  0.00264   3.39  5.10e-4      0.621
    ##  4         16.6              5   12.2   4.37  0.00264   3.38  2.21e-3      1.29 
    ##  5         13.0              5   12.2   0.826 0.00264   3.39  7.92e-5      0.244
    ##  6          9.71             3   10.6  -0.906 0.00275   3.39  9.91e-5     -0.268
    ##  7         12.2              7   13.8  -1.62  0.00477   3.39  5.50e-4     -0.479
    ##  8         14.1              6   13.0   1.12  0.00343   3.39  1.88e-4      0.331
    ##  9          5.69             1    9.02 -3.33  0.00509   3.38  2.49e-3     -0.988
    ## 10          6.69             3   10.6  -3.93  0.00275   3.38  1.87e-3     -1.16 
    ## # … with 404 more rows
…
# Make a data frame of predicted probabilities
prediction_data <- explanatory_data %>% 
  mutate(   
    has_churned = predict(
      mdl_churn_vs_relationship, 
      explanatory_data, 
      type = "response"
    )
  )

# See the result
prediction_data
```

    ## # A tibble: 23 × 2
    ##    time_since_first_purchase has_churned
    ##                        <dbl>       <dbl>
    ##  1                     -1.5        0.626
    ##  2                     -1.25       0.605
    ##  3                     -1          0.584
    ##  4                     -0.75       0.562
    ##  5                     -0.5        0.540
    ##  6                     -0.25       0.518
    ##  7                      0          0.496
    ##  8                      0.25       0.474
    ##  9                      0.5        0.452
    ## 10                      0.75       0.430
    ## # … with 13 more rows
…
``` r
# Update the data frame
prediction_data <- explanatory_data %>% 
  mutate(   
    has_churned = predict(mdl_churn_vs_relationship, explanatory_data, type = "response"),
    # Add the most likely churn outcome
    most_likely_outcome = round(has_churned)
  )

# See the result
prediction_data
```

    ## # A tibble: 23 × 3
    ##    time_since_first_purchase has_churned most_likely_outcome
    ##                        <dbl>       <dbl>               <dbl>
    ##  1                     -1.5        0.626                   1
    ##  2                     -1.25       0.605                   1
    ##  3                     -1          0.584                   1
    ##  4                     -0.75       0.562                   1
    ##  5                     -0.5        0.540                   1
    ##  6                     -0.25       0.518                   1
    ##  7                      0          0.496                   0
    ##  8                      0.25       0.474                   0
    ##  9                      0.5        0.452                   0
    ## 10                      0.75       0.430                   0
    ## # … with 13 more rows
…
# See the result
prediction_data
```

    ## # A tibble: 23 × 3
    ##    time_since_first_purchase has_churned odds_ratio
    ##                        <dbl>       <dbl>      <dbl>
    ##  1                     -1.5        0.626      1.68 
    ##  2                     -1.25       0.605      1.53 
    ##  3                     -1          0.584      1.40 
    ##  4                     -0.75       0.562      1.29 
    ##  5                     -0.5        0.540      1.18 
    ##  6                     -0.25       0.518      1.08 
    ##  7                      0          0.496      0.985
    ##  8                      0.25       0.474      0.901
    ##  9                      0.5        0.452      0.825
    ## 10                      0.75       0.430      0.755
    ## # … with 13 more rows
…
# See the result
prediction_data
```

    ## # A tibble: 23 × 5
    ##    time_since_first_purch… has_churned odds_ratio log_odds_ratio log_odds_ratio2
    ##                      <dbl>       <dbl>      <dbl>          <dbl>           <dbl>
    ##  1                   -1.5        0.626      1.68          0.517           0.517 
    ##  2                   -1.25       0.605      1.53          0.428           0.428 
    ##  3                   -1          0.584      1.40          0.340           0.340 
    ##  4                   -0.75       0.562      1.29          0.251           0.251 
    ##  5                   -0.5        0.540      1.18          0.162           0.162 
    ##  6                   -0.25       0.518      1.08          0.0735          0.0735
    ##  7                    0          0.496      0.985        -0.0152         -0.0152
    ##  8                    0.25       0.474      0.901        -0.104          -0.104 
    ##  9                    0.5        0.452      0.825        -0.193          -0.193 
    ## 10                    0.75       0.430      0.755        -0.281          -0.281 
    ## # … with 13 more rows
…
