…
``` r
# Load package
library(tidybayes)

# Save the values from each draw of the posterior distribution
draws <- spread_draws(stan_model, `(Intercept)`, `song_age`)

# Print the `draws` data frame to the console
draws
```

    ## # A tibble: 4,000 × 5
    ##    .chain .iteration .draw `(Intercept)` song_age
    ##     <int>      <int> <int>         <dbl>    <dbl>
    ##  1      1          1     1          69.0 -0.00591
    ##  2      1          2     2          69.4 -0.00600
    ##  3      1          3     3          67.0 -0.00527
    ##  4      1          4     4          67.3 -0.00536
    ##  5      1          5     5          70.3 -0.00651
    ##  6      1          6     6          71.0 -0.00658
    ##  7      1          7     7          65.8 -0.00510
    ##  8      1          8     8          71.7 -0.00671
    ##  9      1          9     9          71.6 -0.00645
    ## 10      1         10    10          68.2 -0.00525
    ## # … with 3,990 more rows
…
